<svg xmlns="http://www.w3.org/2000/svg" width="28.894" height="35.303" viewBox="0 0 28.894 35.303">
  <g id="Group_266" data-name="Group 266" transform="translate(-1159.106 -998.934)">
    <path id="Path_3" data-name="Path 3" d="M1182.471,1097.316a14.149,14.149,0,0,0-13.462,2.533,4.953,4.953,0,0,0-8.9-.016v2.887a1.348,1.348,0,0,0,1.345,1.344h24.2a1.349,1.349,0,0,0,1.345-1.344v-2.872h-.029A5.268,5.268,0,0,1,1182.471,1097.316Z" transform="translate(0 -70.827)" fill="none" stroke="#5dff00" stroke-miterlimit="10" stroke-width="2"/>
    <path id="Path_4" data-name="Path 4" d="M1185.655,1080.744h-24.2a1.349,1.349,0,0,0-1.345,1.345v5.814a4.953,4.953,0,0,1,8.9.016,5.265,5.265,0,0,1,8.961,0,5.265,5.265,0,0,1,9,0H1187v-5.829A1.349,1.349,0,0,0,1185.655,1080.744Z" transform="translate(0 -58.898)" fill="none" stroke="#5dff00" stroke-miterlimit="10" stroke-width="2"/>
    <path id="Path_5" data-name="Path 5" d="M1188.311,1051.2a14.948,14.948,0,0,0-13.653,2.786c-.147,0-.291-.01-.435-.022v5.14H1193.4v-5.14c-.143.012-.288.022-.435.022A5.274,5.274,0,0,1,1188.311,1051.2Z" transform="translate(-10.32 -37.297)" fill="none" stroke="#5dff00" stroke-miterlimit="10" stroke-width="2"/>
    <path id="Path_6" data-name="Path 6" d="M1174.223,1038.235v6.25c.144.012.288.022.435.022a5.265,5.265,0,0,1,9,0,5.276,5.276,0,0,1,9.3,0c.147,0,.291-.01.435-.022v-6.25Z" transform="translate(-10.32 -27.821)" fill="none" stroke="#5dff00" stroke-miterlimit="10" stroke-width="2"/>
    <rect id="Rectangle_1" data-name="Rectangle 1" width="1.93" height="5.679" transform="translate(1172.41 1004.83)" fill="#5dff00" stroke="#5dff00" stroke-width="2"/>
    <path id="Path_7" data-name="Path 7" d="M1209.62,1004.214s-.949-3.229,1.424-4.035A2.887,2.887,0,0,1,1209.62,1004.214Z" transform="translate(-36.061 0)" fill="#5dff00" stroke="#5dff00" stroke-width="2"/>
  </g>
</svg>
